Assignment_5
…
Assignment_5

    Author

             Ingrid 

# A tibble: 34 × 5
   participant sex    include multiple single
   <chr>       <chr>  <chr>      <dbl>  <dbl>
 1 FP28        female incl         214    123
 2 FP40        female incl         -69      2
 3 FP21        male   incl         619    189
 4 FP34        female incl         396    312
 5 FP23        male   incl        -205    445
 6 FP36        female incl         587    386
 7 FP38        female incl         -85    225
 8 FP25        male   incl         373    -47
 9 FP19        male   incl         302    127
10 FP13        male   incl         734    915
# ℹ 24 more rows

# A tibble: 136 × 7
   participant time  sex    include sets     leg   lean.mass
   <chr>       <fct> <chr>  <chr>   <chr>    <chr>     <dbl>
 1 FP28        pre   female incl    multiple L          7059
 2 FP28        pre   female incl    single   R          7104
 3 FP40        pre   female incl    single   L          7190
 4 FP40        pre   female incl    multiple R          7506
 5 FP21        pre   male   incl    single   L         10281
 6 FP21        pre   male   incl    multiple R         10200
 7 FP34        pre   female incl    single   L          6014
 8 FP34        pre   female incl    multiple R          6009
 9 FP23        pre   male   incl    single   L          8242
10 FP23        pre   male   incl    multiple R          8685
# ℹ 126 more rows
…
